William Hyltin Data Analysis Portfolio - Tidy Tuesday Exercise
…
logrecipe <- simprecipe %>% 
  step_normalize(Age)

set.seed(42)

logreg_wflow <- workflow() %>% 
  add_model(logreg) %>% 
  add_recipe(logrecipe)

logreg_fit <- logreg_wflow %>% fit(data = modeltrain)
logpreds_results <- logreg_fit %>% extract_fit_parsnip() %>% tidy()
logpreds_results

# A tibble: 44 × 5
   term                  estimate std.error  statistic p.value
   <chr>                    <dbl>     <dbl>      <dbl>   <dbl>
 1 (Intercept)            -19.5    5328.    -0.00365    0.997 
 2 Age                     -0.717     0.441 -1.62       0.104 
 3 Age_x_genderMale         0.261     0.154  1.70       0.0899
 4 HomeState_Alabama       18.3    5328.     0.00343    0.997 
 5 HomeState_Arizona       18.3    5328.     0.00343    0.997 
 6 HomeState_Arkansas      39.3   12002.     0.00328    0.997 
 7 HomeState_California    16.7    5328.     0.00313    0.998 
 8 HomeState_Colorado      -0.646 12002.    -0.0000538  1.00  
 9 HomeState_Connecticut   -1.03  12002.    -0.0000857  1.00  
10 HomeState_Florida       -0.441  6231.    -0.0000708  1.00  
# ℹ 34 more rows
…
