William Hyltin Data Analysis Portfolio - Cleaning up Crime
…
d3 %>% dim()

[1] 2461621      28

d3 %>% group_by(Crime.Category, Category.Description) %>% summarize(
  cnt = n()
)

`summarise()` has grouped output by 'Crime.Category'. You can override using
the `.groups` argument.

# A tibble: 36 × 3
# Groups:   Crime.Category [33]
   Crime.Category      Category.Description    cnt
   <chr>               <chr>                 <int>
 1 ABUSE OF OFFICE     ""                      135
 2 AGGRAVATED ASSAULT  "Aggravated Assault"  43636
 3 ALCOHOL RELATED     ""                   103340
 4 AUTO THEFT          "Auto Theft"          62114
 5 BRIBERY             ""                       20
 6 BURGLARY            "Burglary"           130503
 7 CRIMINAL CONSPIRACY ""                      633
 8 CRIMINAL MISCHIEF   ""                   166706
 9 DISORDERLY CONDUCT  ""                    24842
10 DRUG RELATED        ""                   128900
# ℹ 26 more rows

d3 %>% filter(!is.na(Crime.Category)) %>%
  #,Category.Description == '') %>% 
  #select(Crime.Category, Highest.Offense.Description) %>% 
  group_by(Crime.Category) %>%  #, Highest.Offense.Description) %>% 
  summarize(
    cnt = n()
  ) %>% 
  arrange(by = cnt)

# A tibble: 33 × 2
   Crime.Category                  cnt
   <chr>                         <int>
 1 BRIBERY                          20
 2 JUSTIFIED HOMICIDE               44
 3 ABUSE OF OFFICE                 135
 4 CRIMINAL CONSPIRACY             633
 5 GAMBLING RELATED                861
 6 MURDER                          862
 7 UNLAWFUL RESTRAINT             1274
 8 LITTERING                      2800
 9 SEX OFFENSE INVOLVING A CHILD  6147
10 WEAPON RELATED                11867
# ℹ 23 more rows
…
