Data Analysis Portfolio - CDC Data Exercise
…
Variables to be removed: Zero Variance variables: Data_Value_Unit, Data_Value_Type, DataSource, TopicType, TopicTypeId NZV: Data_Value_Footnote_Symbol, Data_Value_Footnote

rawdata %>% filter(is.na(Data_Value)) #looking at nulls to determine why they are there

# A tibble: 2,117 × 31
   YEAR     LocationAbbr LocationDesc TopicType TopicDesc MeasureDesc DataSource
   <chr>    <chr>        <chr>        <chr>     <chr>     <chr>       <chr>     
 1 2014-20… IL           Illinois     Tobacco … Cigarett… Current Sm… BRFSS     
 2 2016     IA           Iowa         Tobacco … Smokeles… Frequency … BRFSS     
 3 2014     ID           Idaho        Tobacco … Smokeles… Frequency … BRFSS     
 4 2019     MI           Michigan     Tobacco … Smokeles… Frequency … BRFSS     
 5 2016-20… MA           Massachuset… Tobacco … Smokeles… Current Us… BRFSS     
 6 2013-20… DC           District of… Tobacco … Cigarett… Current Sm… BRFSS     
 7 2013     ME           Maine        Tobacco … Cigarett… Current Sm… BRFSS     
 8 2011     AZ           Arizona      Tobacco … Smokeles… Frequency … BRFSS     
 9 2018     AL           Alabama      Tobacco … Smokeles… Frequency … BRFSS     
10 2018     NC           North Carol… Tobacco … Smokeles… Frequency … BRFSS     
# ℹ 2,107 more rows
# ℹ 24 more variables: Response <chr>, Data_Value_Unit <chr>,
#   Data_Value_Type <chr>, Data_Value <dbl>, Data_Value_Footnote_Symbol <chr>,
#   Data_Value_Footnote <chr>, Data_Value_Std_Err <dbl>,
#   Low_Confidence_Limit <dbl>, High_Confidence_Limit <dbl>, Sample_Size <dbl>,
#   Gender <chr>, Race <chr>, Age <chr>, Education <chr>, GeoLocation <chr>,
#   TopicTypeId <chr>, TopicId <chr>, MeasureId <chr>, …
…
To understand the scope of the data set and check for things like inconsistencies, mismatched abbreviations, etc we look at all the unique values for LocationDesc and LocationAbbr. For simplicity sake I will remove the Abbreviated column in the future.

unique(rawdata$YEAR) # seeing unique values of year

 [1] "2017"      "2018"      "2016"      "2014"      "2012"      "2018-2019"
 [7] "2011"      "2013"      "2014-2015" "2017-2018" "2015"      "2019"     
[13] "2016-2017" "2013-2014" "2015-2016" "2011-2012" "2012-2013"

rawdata %>% filter(nchar(YEAR) > 4) # confirming what the two-year values are

# A tibble: 4,670 × 31
   YEAR     LocationAbbr LocationDesc TopicType TopicDesc MeasureDesc DataSource
   <chr>    <chr>        <chr>        <chr>     <chr>     <chr>       <chr>     
 1 2018-20… DE           Delaware     Tobacco … Smokeles… Current Us… BRFSS     
 2 2014-20… IL           Illinois     Tobacco … Cigarett… Current Sm… BRFSS     
 3 2017-20… WA           Washington   Tobacco … Cigarett… Current Sm… BRFSS     
 4 2018-20… DC           District of… Tobacco … Smokeles… Current Us… BRFSS     
 5 2016-20… ID           Idaho        Tobacco … Cigarett… Current Sm… BRFSS     
 6 2017-20… CO           Colorado     Tobacco … Smokeles… Current Us… BRFSS     
 7 2018-20… TX           Texas        Tobacco … Cigarett… Current Sm… BRFSS     
 8 2018-20… KS           Kansas       Tobacco … Cigarett… Current Sm… BRFSS     
 9 2014-20… KS           Kansas       Tobacco … Smokeles… Current Us… BRFSS     
10 2013-20… VT           Vermont      Tobacco … Cigarett… Current Sm… BRFSS     
# ℹ 4,660 more rows
# ℹ 24 more variables: Response <chr>, Data_Value_Unit <chr>,
#   Data_Value_Type <chr>, Data_Value <dbl>, Data_Value_Footnote_Symbol <chr>,
#   Data_Value_Footnote <chr>, Data_Value_Std_Err <dbl>,
#   Low_Confidence_Limit <dbl>, High_Confidence_Limit <dbl>, Sample_Size <dbl>,
#   Gender <chr>, Race <chr>, Age <chr>, Education <chr>, GeoLocation <chr>,
#   TopicTypeId <chr>, TopicId <chr>, MeasureId <chr>, …

Again, understanding the scope of the data. Two things I’m noticing, first being that the year column is a character variable, and not a number. Second being that there are some two-year aggregations that are not necessary since we have every year between 2011 and 2019, these can likely be filtered out.

# filtering down to one Locationa and a smaller year set, again to diagnose the two-year observations
rawdata %>% filter(LocationAbbr == 'IL', YEAR %in% c('2014-2015', '2014', '2015')) %>% arrange(DisplayOrder)

# A tibble: 152 × 31
   YEAR  LocationAbbr LocationDesc TopicType    TopicDesc MeasureDesc DataSource
   <chr> <chr>        <chr>        <chr>        <chr>     <chr>       <chr>     
 1 2015  IL           Illinois     Tobacco Use… Cessatio… Percent of… BRFSS     
 2 2014  IL           Illinois     Tobacco Use… Cessatio… Percent of… BRFSS     
 3 2015  IL           Illinois     Tobacco Use… Cessatio… Percent of… BRFSS     
 4 2014  IL           Illinois     Tobacco Use… Cessatio… Percent of… BRFSS     
 5 2015  IL           Illinois     Tobacco Use… Cessatio… Percent of… BRFSS     
 6 2014  IL           Illinois     Tobacco Use… Cessatio… Percent of… BRFSS     
 7 2014  IL           Illinois     Tobacco Use… Cessatio… Quit Attem… BRFSS     
 8 2015  IL           Illinois     Tobacco Use… Cessatio… Quit Attem… BRFSS     
 9 2015  IL           Illinois     Tobacco Use… Cessatio… Quit Attem… BRFSS     
10 2014  IL           Illinois     Tobacco Use… Cessatio… Quit Attem… BRFSS     
# ℹ 142 more rows
# ℹ 24 more variables: Response <chr>, Data_Value_Unit <chr>,
#   Data_Value_Type <chr>, Data_Value <dbl>, Data_Value_Footnote_Symbol <chr>,
#   Data_Value_Footnote <chr>, Data_Value_Std_Err <dbl>,
#   Low_Confidence_Limit <dbl>, High_Confidence_Limit <dbl>, Sample_Size <dbl>,
#   Gender <chr>, Race <chr>, Age <chr>, Education <chr>, GeoLocation <chr>,
#   TopicTypeId <chr>, TopicId <chr>, MeasureId <chr>, …

rawdata %>% filter(LocationAbbr == 'IL', YEAR %in% c('2014-2015', '2014', '2015')) %>% 
  group_by(YEAR, Race, Gender, MeasureDesc) %>% # groups picked to confirm aggregation hierarchy
  summarize(
    Samp = sum(Sample_Size, na.rm = TRUE) # sums sample size across the above groups
  )

`summarise()` has grouped output by 'YEAR', 'Race', 'Gender'. You can override
using the `.groups` argument.

# A tibble: 78 × 5
# Groups:   YEAR, Race, Gender [21]
   YEAR  Race             Gender  MeasureDesc                               Samp
   <chr> <chr>            <chr>   <chr>                                    <dbl>
 1 2014  African American Overall Current Smoking                            488
 2 2014  African American Overall Current Use                                489
 3 2014  All Races        Female  Current Smoking                           3459
 4 2014  All Races        Female  Current Use                               3454
 5 2014  All Races        Female  Frequency of Use                             0
 6 2014  All Races        Female  Percent of Former Smokers Among Ever Sm…  1056
 7 2014  All Races        Female  Quit Attempt in Past Year Among Every D…   225
 8 2014  All Races        Female  Smoking Frequency                          686
 9 2014  All Races        Female  Smoking Status                            8241
10 2014  All Races        Female  User Status                               5486
# ℹ 68 more rows
…
