William Hyltin Data Analysis Portfolio - Data Exercise
…
#lower cases the full review text
d3 <- d3 %>% mutate(
  CompleteReview = tolower(CompleteReview)
)

Before we do anything we do anything with the reviews, the dataset is huge, and since the next step involves creating a bag of words it would probably be a good idea to filter the dataset. We will pick two companies to filter to as our companies of interest. First let’s look at the number of reviews by company.

#checks the count of reviews by company name
d3 %>% group_by(CompNm) %>% 
  summarize(
    cnt = n()
  ) %>% arrange(-cnt)

# A tibble: 59 × 2
   CompNm                            cnt
   <chr>                           <int>
 1 Tata Consultancy Services (tcs) 14441
 2 IBM                             10820
 3 Infosys                         10696
 4 Accenture                       10137
 5 Cognizant Technology Solutions   9626
 6 Hdfc Bank                        6749
 7 Capgemini                        5248
 8 Amazon.com                       3385
 9 L&T Technology Services Ltd.     3226
10 Concentrix                       3162
# ℹ 49 more rows
…
