William Hyltin Data Analysis Portfolio - Analysis
…
Setup

#load needed packages. make sure they are installed.
pacman::p_load(here, knitr, tidyverse, skimr, fpp3, urca, forecast, gt)
theme_set(theme_minimal())

d1 <- readRDS(here('HYLTIN-PII-project','data','processed-data','processed-crime.rds'))

d1 %>% mutate(Category.Description = if_else(Category.Description == '', 'NA/Unknown', Category.Description)) %>% group_by(Category.Description, Highest.Offense.Description) %>% summarize(cnt = n()) %>% pivot_wider(names_from = Category.Description, values_from = cnt)

`summarise()` has grouped output by 'Category.Description'. You can override
using the `.groups` argument.

# A tibble: 436 × 9
   Highest.Offense.Description `Aggravated Assault` `Auto Theft` Burglary Murder
   <chr>                                      <int>        <int>    <int>  <int>
 1 AGG ASLT ENHANC STRANGL/SU…                 1098           NA       NA     NA
 2 AGG ASLT STRANGLE/SUFFOCATE                 7712           NA       NA     NA
 3 AGG ASLT W/MOTOR VEH FAM/D…                  772           NA       NA     NA
 4 AGG ASSAULT                                18634           NA       NA     NA
 5 AGG ASSAULT BY PUBLIC SERV…                   10           NA       NA     NA
 6 AGG ASSAULT FAM/DATE VIOLE…                 9603           NA       NA     NA
 7 AGG ASSAULT ON PEACE OFFIC…                   70           NA       NA     NA
 8 AGG ASSAULT ON PUBLIC SERV…                  329           NA       NA     NA
 9 AGG ASSAULT WITH MOTOR VEH                  1823           NA       NA     NA
10 ARSON WITH BODILY INJURY                      15           NA       NA     NA
# ℹ 426 more rows
# ℹ 4 more variables: `NA/Unknown` <int>, Rape <int>, Robbery <int>,
#   Theft <int>
…
group_fit <- crime_agg %>% 
  filter(year(Occurred.Date) < 2024) %>%
  model(base = ARIMA(Count)) %>% 
  reconcile(
    td = top_down(base)
  )

Warning in sqrt(diag(best$var.coef)): NaNs produced
Warning in sqrt(diag(best$var.coef)): NaNs produced

group_fit

# A mable: 34 x 3
# Key:     Crime.Category [34]
   Crime.Category                                    base
   <chr*>                                         <model>
 1 ABUSE OF OFFICE                         <ARIMA(1,1,2)>
 2 AGGRAVATED ASSAULT  <ARIMA(0,1,3)(0,0,2)[12] w/ drift>
 3 ALCOHOL RELATED              <ARIMA(1,1,2)(0,0,2)[12]>
 4 AUTO THEFT                   <ARIMA(2,1,0)(0,0,2)[12]>
 5 BRIBERY                         <ARIMA(1,0,0) w/ mean>
 6 BURGLARY                     <ARIMA(0,1,2)(2,0,0)[12]>
 7 CRIMINAL CONSPIRACY             <ARIMA(1,0,1) w/ mean>
 8 CRIMINAL MISCHIEF            <ARIMA(0,1,2)(0,0,2)[12]>
 9 DISORDERLY CONDUCT           <ARIMA(2,1,2)(2,0,0)[12]>
10 DRUG RELATED                 <ARIMA(0,1,1)(2,0,0)[12]>
# ℹ 24 more rows
# ℹ 1 more variable: td <model>
…
