William Hyltin Data Analysis Portfolio - R Coding Exercise
…
The charts imply a negative correlation between infant mortality and life expectancy, as well as a positive correlation between population and life expectancy. However the “streaks” of points that we are seeing are likely due to the year variable from our original dataset. What we are seeing is the year over year change in each country’s life expectancy and infant mortality or population. We can isolate to one year in particular to avoid this. First we should determine which years have missing data for infant_mortality.

africadata %>% 
  group_by(year) %>% #group_by function will allow us to easily identify the year
  summarize(
    missing_im = sum(is.na(infant_mortality)) #takes advantage of sum function and logical values since TRUE==1
  )

# A tibble: 57 × 2
    year missing_im
   <int>      <int>
 1  1960         10
 2  1961         17
 3  1962         16
 4  1963         16
 5  1964         15
 6  1965         14
 7  1966         13
 8  1967         11
 9  1968         11
10  1969          7
# ℹ 47 more rows
…
